src/dump.vcd
$date
	Wed Oct 29 15:49:10 2025
$end
$version
	QuestaSim Version 10.6c
$end
$timescale
	1ns
$end

$scope module uvm_root $end
$upscope $end

$scope module top $end
$var reg 1 ! clk $end

$scope module DUT $end
$var wire 1 " clk $end
$var wire 1 # rst $end
$var wire 1 $ dot_inp $end
$var wire 1 % dash_inp $end
$var wire 1 & char_space_inp $end
$var wire 1 ' word_space_inp $end
$var reg 8 ( sout [7:0] $end
$var wire 1 ) trans_out [2] $end
$var wire 1 * trans_out [1] $end
$var wire 1 + trans_out [0] $end
$var wire 1 , serial_out [7] $end
$var wire 1 - serial_out [6] $end
$var wire 1 . serial_out [5] $end
$var wire 1 / serial_out [4] $end
$var wire 1 0 serial_out [3] $end
$var wire 1 1 serial_out [2] $end
$var wire 1 2 serial_out [1] $end
$var wire 1 3 serial_out [0] $end

$scope module trans $end
$var parameter 4 4 s_idle $end
$var parameter 4 5 s_dot $end
$var parameter 4 6 s_dash $end
$var parameter 4 7 s_char_1 $end
$var parameter 4 8 s_char_2 $end
$var parameter 4 9 s_char_3 $end
$var parameter 4 : s_word_1 $end
$var parameter 4 ; s_word_2 $end
$var parameter 4 < s_word_3 $end
$var parameter 4 = s_word_4 $end
$var parameter 4 > s_word_5 $end
$var parameter 4 ? s_word_6 $end
$var parameter 4 @ s_word_7 $end
$var wire 1 $ dot_inp $end
$var wire 1 % dash_inp $end
$var wire 1 & char_space_inp $end
$var wire 1 ' word_space_inp $end
$var wire 1 " clk $end
$var wire 1 # rst $end
$var reg 3 A parallel_out [2:0] $end
$var reg 4 B state [3:0] $end
$var reg 4 C next_state [3:0] $end
$upscope $end

$scope module rec $end
$var parameter 8 D reset_state $end
$var parameter 8 E a $end
$var parameter 8 F b $end
$var parameter 8 G c $end
$var parameter 8 H d $end
$var parameter 8 I e $end
$var parameter 8 J f $end
$var parameter 8 K g $end
$var parameter 8 L h $end
$var parameter 8 M i $end
$var parameter 8 N j $end
$var parameter 8 O k $end
$var parameter 8 P l $end
$var parameter 8 Q m $end
$var parameter 8 R n $end
$var parameter 8 S o $end
$var parameter 8 T p $end
$var parameter 8 U q $end
$var parameter 8 V r $end
$var parameter 8 W s $end
$var parameter 8 X t $end
$var parameter 8 Y u $end
$var parameter 8 Z v $end
$var parameter 8 [ w $end
$var parameter 8 \ x $end
$var parameter 8 ] y $end
$var parameter 8 ^ z $end
$var parameter 8 _ zero $end
$var parameter 8 ` one $end
$var parameter 8 a two $end
$var parameter 8 b three $end
$var parameter 8 c four $end
$var parameter 8 d five $end
$var parameter 8 e six $end
$var parameter 8 f seven $end
$var parameter 8 g eight $end
$var parameter 8 h nine $end
$var parameter 8 i ds1 $end
$var parameter 8 j ds2 $end
$var parameter 8 k ds3 $end
$var wire 1 # rst $end
$var wire 1 " clk $end
$var wire 1 ) p_in [2] $end
$var wire 1 * p_in [1] $end
$var wire 1 + p_in [0] $end
$var reg 8 l s_out [7:0] $end
$var reg 8 m state [7:0] $end
$var reg 8 n next_state [7:0] $end
$upscope $end
$upscope $end
$upscope $end

$scope begin uvm_pkg $end
$var parameter 32 o UVM_HDL_MAX_WIDTH $end
$var parameter 32 p UVM_STREAMBITS $end
$var parameter 32 q UVM_RADIX $end
$var parameter 32 r UVM_MACRO_NUMFLAGS $end
$var parameter 32 s UVM_DEFAULT $end
$var parameter 32 t UVM_ALL_ON $end
$var parameter 32 u UVM_FLAGS_ON $end
$var parameter 32 v UVM_FLAGS_OFF $end
$var parameter 32 w UVM_COPY $end
$var parameter 32 x UVM_NOCOPY $end
$var parameter 32 y UVM_COMPARE $end
$var parameter 32 z UVM_NOCOMPARE $end
$var parameter 32 { UVM_PRINT $end
$var parameter 32 | UVM_NOPRINT $end
$var parameter 32 } UVM_RECORD $end
$var parameter 32 ~ UVM_NORECORD $end
$var parameter 32 !! UVM_PACK $end
$var parameter 32 "! UVM_NOPACK $end
$var parameter 32 #! UVM_PHYSICAL $end
$var parameter 32 $! UVM_ABSTRACT $end
$var parameter 32 %! UVM_READONLY $end
$var parameter 32 &! UVM_NODEFPRINT $end
$var parameter 32 '! UVM_MACRO_EXTRAS $end
$var parameter 32 (! UVM_FLAGS $end
$var parameter 32 )! UVM_UNPACK $end
$var parameter 32 *! UVM_CHECK_FIELDS $end
$var parameter 32 +! UVM_END_DATA_EXTRA $end
$var parameter 32 ,! UVM_START_FUNCS $end
$var parameter 32 -! UVM_SET $end
$var parameter 32 .! UVM_SETINT $end
$var parameter 32 /! UVM_SETOBJ $end
$var parameter 32 0! UVM_SETSTR $end
$var parameter 32 1! UVM_END_FUNCS $end
$var parameter 32 2! UVM_STR_CRC_POLYNOMIAL $end
$var parameter 32 3! UVM_STDOUT $end
$var parameter 32 4! UVM_LINE_WIDTH $end
$var parameter 32 5! UVM_NUM_LINES $end
$var parameter 32 6! UVM_SMALL_STRING $end
$var parameter 32 7! UVM_LARGE_STRING $end
$var reg 1 8! uvm_start_uvm_declarations $end
$var integer 32 9! uvm_global_random_seed $end
$var integer 32 :! UVM_UNBOUNDED_CONNECTIONS $end

$scope function uvm_hdl_check_path $end
$var integer 32 ;! uvm_hdl_check_path $end
$upscope $end

$scope function uvm_hdl_deposit $end
$var integer 32 <! uvm_hdl_deposit $end
$var reg 1024 =! value [1023:0] $end
$upscope $end

$scope function uvm_hdl_force $end
$var integer 32 >! uvm_hdl_force $end
$var reg 1024 ?! value [1023:0] $end
$upscope $end

$scope task uvm_hdl_force_time $end
$var reg 1024 @! value [1023:0] $end
$var time 64 A! force_time $end
$upscope $end

$scope function uvm_hdl_release_and_read $end
$var integer 32 B! uvm_hdl_release_and_read $end
$var reg 1024 C! value [1023:0] $end
$upscope $end

$scope function uvm_hdl_release $end
$var integer 32 D! uvm_hdl_release $end
$upscope $end

$scope function uvm_hdl_read $end
$var integer 32 E! uvm_hdl_read $end
$var reg 1024 F! value [1023:0] $end
$upscope $end

$scope function uvm_dpi_get_next_arg_c $end
$upscope $end

$scope function uvm_dpi_get_tool_name_c $end
$upscope $end

$scope function uvm_dpi_get_tool_version_c $end
$upscope $end

$scope function uvm_dpi_get_next_arg $end
$upscope $end

$scope function uvm_dpi_get_tool_name $end
$upscope $end

$scope function uvm_dpi_get_tool_version $end
$upscope $end

$scope function uvm_dpi_regcomp $end
$upscope $end

$scope function uvm_dpi_regexec $end
$var integer 32 G! uvm_dpi_regexec $end
$upscope $end

$scope function uvm_dpi_regfree $end
$upscope $end

$scope function uvm_re_match $end
$var integer 32 H! uvm_re_match $end
$upscope $end

$scope function uvm_dump_re_cache $end
$upscope $end

$scope function uvm_glob_to_re $end
$upscope $end

$scope function uvm_revision_string $end
$upscope $end

$scope function uvm_radix_to_string $end
$var integer 32 I! radix $end
$upscope $end

$scope function uvm_instance_scope $end
$var reg 8 J! c [7:0] $end
$var integer 32 K! pos $end
$upscope $end

$scope function uvm_oneway_hash $end
$var integer 32 L! uvm_oneway_hash $end
$var integer 32 M! seed $end
$var reg 1 N! msb $end
$var reg 8 O! current_byte [7:0] $end
$var reg 32 P! crc1 [31:0] $end
$upscope $end

$scope function uvm_create_random_seed $end
$var integer 32 Q! uvm_create_random_seed $end
$upscope $end

$scope function uvm_object_value_str $end
$upscope $end

$scope function uvm_leaf_scope $end
$var reg 8 R! scope_separator [7:0] $end
$var reg 8 S! bracket_match [7:0] $end
$var integer 32 T! pos $end
$var integer 32 U! bmatches $end
$upscope $end

$scope function uvm_vector_to_string $end
$var reg 4096 V! value [4095:0] $end
$var integer 32 W! size $end
$var integer 32 X! radix $end
$upscope $end

$scope function uvm_get_array_index_int $end
$var integer 32 Y! uvm_get_array_index_int $end
$var reg 1 Z! is_wildcard $end
$var integer 32 [! i $end
$upscope $end

$scope function uvm_get_array_index_string $end
$var reg 1 \! is_wildcard $end
$var integer 32 ]! i $end
$upscope $end

$scope function uvm_is_array $end
$var reg 1 ^! uvm_is_array $end
$upscope $end

$scope function uvm_has_wildcard $end
$upscope $end

$scope task run_test $end
$upscope $end

$scope function global_stop_request $end
$upscope $end

$scope function set_global_timeout $end
$var time 64 _! timeout $end
$var reg 1 `! overridable $end
$upscope $end

$scope function set_global_stop_timeout $end
$var time 64 a! timeout $end
$upscope $end

$scope function uvm_report_enabled $end
$var reg 1 b! uvm_report_enabled $end
$var integer 32 c! verbosity $end
$var reg 2 d! severity [1:0] $end
$upscope $end

$scope function uvm_report $end
$var reg 2 e! severity [1:0] $end
$var integer 32 f! verbosity $end
$var integer 32 g! line $end
$upscope $end

$scope function uvm_report_info $end
$var integer 32 h! verbosity $end
$var integer 32 i! line $end
$upscope $end

$scope function uvm_report_warning $end
$var integer 32 j! verbosity $end
$var integer 32 k! line $end
$upscope $end

$scope function uvm_report_error $end
$var integer 32 l! verbosity $end
$var integer 32 m! line $end
$upscope $end

$scope function uvm_report_fatal $end
$var integer 32 n! verbosity $end
$var integer 32 o! line $end
$upscope $end

$scope function uvm_string_to_severity $end
$var reg 1 p! uvm_string_to_severity $end
$var reg 2 q! sev [1:0] $end
$upscope $end

$scope function uvm_string_to_action $end
$upscope $end

$scope function set_config_int $end
$var reg 4096 r! value [4095:0] $end
$upscope $end

$scope function set_config_object $end
$var reg 1 s! clone $end
$upscope $end

$scope function set_config_string $end
$upscope $end

$scope function uvm_is_match $end
$var reg 1 t! uvm_is_match $end
$upscope $end

$scope function uvm_string_to_bits $end
$var reg 115200 u! uvm_string_to_bits [115199:0] $end
$upscope $end

$scope function uvm_bits_to_string $end
$var reg 115200 v! str [115199:0] $end
$upscope $end

$scope task uvm_wait_for_nba_region $end
$var integer 32 w! nba $end
$var integer 32 x! next_nba $end
$upscope $end

$scope function uvm_split_string $end
$upscope $end

$scope function uvm_hdl_concat2string $end
$upscope $end
$upscope $end

$scope begin morse_pkg $end
$upscope $end

$scope begin top_sv_unit $end
$upscope $end

$scope begin std $end
$upscope $end

$scope begin questa_uvm_pkg $end
$upscope $end
$enddefinitions $end
#0
$dumpvars
0!
bx (
bx A
bx B
bx C
bx l
bx m
bx n
0\!
0^!
0p!
b0 q!
bx u!
bx v!
bx =!
bx ?!
bx @!
bx C!
bx F!
18!
1N!
b1110001 O!
b11000010000001111010001100000111 P!
b1 V!
0Z!
0`!
0b!
b0 d!
b0 e!
bx r!
0s!
0t!
b0 4
b1 5
b10 6
b100 7
b101 8
b110 9
b1000 :
b1001 ;
b1010 <
b1011 =
b1100 >
b1101 ?
b1110 @
b11111111 D
b0 E
b1 F
b10 G
b11 H
b100 I
b101 J
b110 K
b111 L
b1000 M
b1001 N
b1010 O
b1011 P
b1100 Q
b1101 R
b1110 S
b1111 T
b10000 U
b10001 V
b10010 W
b10011 X
b10100 Y
b10101 Z
b10110 [
b10111 \
b11000 ]
b11001 ^
b100000 _
b100001 `
b100010 a
b100011 b
b100100 c
b100101 d
b100110 e
b100111 f
b101000 g
b101001 h
b101010 i
b101011 j
b101100 k
b10000000000 o
b1000000000000 p
b1111000000000000000000000000 q
b10001 r
b10101010101 s
b101010101 t
b101010101 u
b0 v
b1 w
b10 x
b100 y
b1000 z
b10000 {
b100000 |
b1000000 }
b10000000 ~
b100000000 !!
b1000000000 "!
b10000000000000 #!
b100000000000000 $!
b1000000000000000 %!
b10000000000000000 &!
b100000000000000000 '!
b100000000000000001 (!
b100000000000000010 )!
b100000000000000011 *!
b100000000000000100 +!
b100000000000000101 ,!
b100000000000000110 -!
b100000000000000110 .!
b100000000000000111 /!
b100000000000001000 0!
b100000000000001000 1!
b100110000010001110110110110 2!
b1 3!
b1111000 4!
b1111000 5!
b1110111111 6!
b11100000111111111 7!
b0 I!
b101110 R!
b0 S!
b1000000 T!
b11111111111111111111111111111111 U!
b0 ]!
b0 ;!
b0 <!
b0 >!
b0 B!
b0 D!
b0 E!
b1 G!
b0 H!
b1101001011000001111100000011110 9!
b101110 J!
b111 K!
b1100001101111011111000001011011 L!
b1101001011000001111100000011110 M!
b10111111010100001010111111100000 Q!
b100000 W!
b10000000000000000000000000 X!
b0 Y!
b0 [!
b111110100 c!
b0 f!
b0 g!
b11001000 h!
b11011001 i!
b0 j!
b0 k!
b0 l!
b0 m!
b0 n!
b0 o!
b100011 w!
b100011 x!
b11111111111111111111111111111111 :!
bx A!
bx _!
bx a!
x+
x*
x)
x3
x2
x1
x0
x/
x.
x-
x,
0"
x#
x$
x%
x&
x'
$end
#5
1!
1"
#10
0!
0"
#15
1!
1"
#20
0!
0"
#25
1!
1"
b100100 x!
b100100 w!
0#
0$
0%
0&
0'
b0 C
b0 A
0+
0*
0)
b11111111 l
13
12
11
10
1/
1.
1-
1,
b11111111 (
b0 B
b11111111 m
b11111111 n
#30
0!
0"
#35
1!
1"
b100101 x!
b1100001101111011111000001011110 Q!
b1100001101111011111000001100001 Q!
b100101 w!
1#
1$
b1 C
#40
0!
0"
#45
1!
1"
b1 B
b0 C
b1 A
1+
b100 n
b100110 x!
b1100001101111011111000001100101 Q!
b1100001101111011111000001101010 Q!
b100110 w!
0$
b0 A
b1 A
#50
0!
0"
#55
1!
1"
b100 m
b0 B
b0 A
b1000 n
0+
b100 n
b100111 x!
b1100001101111011111000001110000 Q!
b1100001101111011111000001110111 Q!
b100111 w!
1&
b100 C
#60
0!
0"
#65
1!
1"
b100 B
b0 C
b101 C
b101000 x!
b1100001101111011111000001111111 Q!
b1100001101111011111000010001000 Q!
b101000 w!
0&
b0 C
b101 C
#70
0!
0"
#75
1!
1"
b101 B
b0 C
b110 C
#80
0!
0"
#85
1!
1"
b110 B
b0 C
b11 A
1+
1*
b11111111 n
b1100101 l
02
00
0/
0,
b1100101 (
#90
0!
0"
#95
1!
1"
b11111111 m
b0 B
b0 A
b11111111 l
12
10
1/
1,
0+
0*
b11111111 (
#100
0!
0"
#105
1!
1"
b101001 x!
b101010 x!
b101011 x!
b101001 w!
b101010 w!
b101011 w!
b101100 x!
b101101 x!
b101100 w!
b101101 w!
b10111111010100001010111111110010 Q!
b10101111001101110011111101011100 Q!
b11100110001001101000010101010111 Q!
b11101010001000001010100000111100 Q!
b10011111000100000001000110101010 Q!
b10111011110100110101101011000001 Q!
b11111110101100101010010101110110 Q!
b10010110000111111011110101000110 Q!
b10010011001100000101111101101001 Q!
b10100010001111100011001111011010 Q!
b10111100111010101100010010010001 Q!
b1000010111110100101101100100101 Q!
b1011111011110000110001110110101 Q!
b10011110111000001010100001101101 Q!
b1110100101001010111001101110110 Q!
b10110101000101000000001011101010 Q!
b1111000110111110111101100000101 Q!
b10100000000011000010000110100010 Q!
b1011111101011111110011000010000 Q!
b111011011000000101101011100011 Q!
b11010010101011111110010110000001 Q!
b1001001010010100111001000111 Q!
b10111010010100010100101101011100 Q!
b11011110101010000001101101100001 Q!
b100010101001111110001100111110 Q!
b1111011000010011001011110010110 Q!
b101001000011110111110010011100 Q!
b1100101001001001111011100000000 Q!
b10101100010111101000110001011011 Q!
b11101110011100000101010001111011 Q!
b10010111000111110110000101000100 Q!
b111010011010011101100101110011 Q!
b1011111101010011111111011111011 Q!
b11100010111001011100000010011110 Q!
b1110100011110110000111100111100 Q!
b1110000101010010101101100011001 Q!
b111101100001011110010000101110 Q!
b11101001111011101001100000001110 Q!
b11101010010010000000001011010101 Q!
b10000010010001000111111010111111 Q!
b111000011000110011100110101111 Q!
b11011100000111001000010000111110 Q!
b10111111010100001011000000000101 Q!
b10101111001101110011111101101111 Q!
b11100110001001101000010101101010 Q!
b11101010001000001010100001001111 Q!
b10011111000100000001000110111101 Q!
b10111011110100110101101011010100 Q!
b11111110101100101010010110001001 Q!
b10010110000111111011110101011001 Q!
b10010011001100000101111101111100 Q!
b10100010001111100011001111101101 Q!
b10111100111010101100010010100100 Q!
b1000010111110100101101100111000 Q!
b1011111011110000110001111001000 Q!
b10011110111000001010100010000000 Q!
b1110100101001010111001110001001 Q!
b10110101000101000000001011111101 Q!
b1111000110111110111101100011000 Q!
b10100000000011000010000110110101 Q!
b1011111101011111110011000100011 Q!
b111011011000000101101011110110 Q!
b11010010101011111110010110010100 Q!
b1001001010010100111001011010 Q!
b10111010010100010100101101101111 Q!
b11011110101010000001101101110100 Q!
b100010101001111110001101010001 Q!
b1111011000010011001011110101001 Q!
b101001000011110111110010101111 Q!
b1100101001001001111011100010011 Q!
b10101100010111101000110001101110 Q!
b11101110011100000101010010001110 Q!
b10010111000111110110000101010111 Q!
b111010011010011101100110000110 Q!
b1011111101010011111111100001110 Q!
b11100010111001011100000010110001 Q!
b1110100011110110000111101001111 Q!
b1110000101010010101101100101100 Q!
b111101100001011110010001000001 Q!
b11101001111011101001100000100001 Q!
b11101010010010000000001011101000 Q!
b10000010010001000111111011010010 Q!
b111000011000110011100111000010 Q!
b11011100000111001000010001010001 Q!
b10111111010100001011000000011001 Q!
b10101111001101110011111110000011 Q!
b11100110001001101000010101111110 Q!
b11101010001000001010100001100011 Q!
b10011111000100000001000111010001 Q!
b10111011110100110101101011101000 Q!
b11111110101100101010010110011101 Q!
b10010110000111111011110101101101 Q!
b10010011001100000101111110010000 Q!
b10100010001111100011010000000001 Q!
b10111100111010101100010010111000 Q!
b1000010111110100101101101001100 Q!
b1011111011110000110001111011100 Q!
b10011110111000001010100010010100 Q!
b1110100101001010111001110011101 Q!
b10110101000101000000001100010001 Q!
b1111000110111110111101100101100 Q!
b10100000000011000010000111001001 Q!
b1011111101011111110011000110111 Q!
b111011011000000101101100001010 Q!
b11010010101011111110010110101000 Q!
b1001001010010100111001101110 Q!
b10111010010100010100101110000011 Q!
b11011110101010000001101110001000 Q!
b100010101001111110001101100101 Q!
b1111011000010011001011110111101 Q!
b101001000011110111110011000011 Q!
b1100101001001001111011100100111 Q!
b10101100010111101000110010000010 Q!
b11101110011100000101010010100010 Q!
b10010111000111110110000101101011 Q!
b111010011010011101100110011010 Q!
b1011111101010011111111100100010 Q!
b11100010111001011100000011000101 Q!
b1110100011110110000111101100011 Q!
b1110000101010010101101101000000 Q!
b111101100001011110010001010101 Q!
b11101001111011101001100000110101 Q!
b11101010010010000000001011111100 Q!
b10000010010001000111111011100110 Q!
b111000011000110011100111010110 Q!
b11011100000111001000010001100101 Q!
b11011100000111001000010001111010 Q!
b111000011000110011100111101011 Q!
b10000010010001000111111011111011 Q!
b111011011000000101101100011111 Q!
b11100110001001101000010110010011 Q!
b10111111010100001011000000101110 Q!
b10101111001101110011111110011000 Q!
b10011111000100000001000111100110 Q!
b11101010001000001010100001111000 Q!
b1011111101011111110011001001100 Q!
b10100010001111100011010000010110 Q!
b10111011110100110101101011111101 Q!
b11111110101100101010010110110010 Q!
b10010110000111111011110110000010 Q!
b10010011001100000101111110100101 Q!
b10111100111010101100010011001101 Q!
b1000010111110100101101101100001 Q!
b10100000000011000010000111011110 Q!
b1011111011110000110001111110001 Q!
b10011110111000001010100010101001 Q!
b1110100101001010111001110110010 Q!
b10110101000101000000001100100110 Q!
b1111000110111110111101101000001 Q!
b10111010010100010100101110011000 Q!
b11010010101011111110010110111101 Q!
b1001001010010100111010000011 Q!
b1111011000010011001011111010010 Q!
b100010101001111110001101111010 Q!
b11011110101010000001101110011101 Q!
b11101010010010000000001100010001 Q!
b111010011010011101100110101111 Q!
b101001000011110111110011011000 Q!
b1100101001001001111011100111100 Q!
b10101100010111101000110010010111 Q!
b11101110011100000101010010110111 Q!
b10010111000111110110000110000000 Q!
b11101001111011101001100001001010 Q!
b1011111101010011111111100110111 Q!
b11100010111001011100000011011010 Q!
b1110100011110110000111101111000 Q!
b1110000101010010101101101010101 Q!
b111101100001011110010001101010 Q!
