src/simulation.log
# vsim -vopt work.top -voptargs="+acc=npr" -assertdebug -l simulation.log -coverage -c -do "coverage save -onexit -assert -directive -cvg -codeAll coverage.ucdb; run -all; exit" 
# Start time: 10:47:15 on Oct 31,2025
# ** Note: (vsim-3812) Design is being optimized...
# ** Note: (vopt-143) Recognized 1 FSM in module "rec_fsm(fast)".
# ** Note: (vopt-143) Recognized 1 FSM in module "trans_fsm(fast)".
# //  Questa Sim
# //  Version 10.6c linux Jul 25 2017
# //
# //  Copyright 1991-2017 Mentor Graphics Corporation
# //  All Rights Reserved.
# //
# //  QuestaSim and its associated documentation contain trade
# //  secrets and commercial or financial information that are the property of
# //  Mentor Graphics Corporation and are privileged, confidential,
# //  and exempt from disclosure under the Freedom of Information Act,
# //  5 U.S.C. Section 552. Furthermore, this information
# //  is prohibited from disclosure under the Trade Secrets Act,
# //  18 U.S.C. Section 1905.
# //
# Loading sv_std.std
# Loading work.morse_interface(fast)
# Loading mtiUvm.uvm_pkg
# Loading work.morse_pkg(fast)
# Loading work.top_sv_unit(fast)
# Loading work.top(fast)
# Loading work.morse_interface(fast)
# Loading work.morse_top(fast)
# Loading work.trans_fsm(fast)
# Loading work.rec_fsm(fast)
# Loading mtiUvm.questa_uvm_pkg(fast)
# Loading /tools/mentor/questasim_10.6c/questasim/uvm-1.1d/linux/uvm_dpi.so
# coverage save -onexit -assert -directive -cvg -codeAll coverage.ucdb
#  run -all
# ----------------------------------------------------------------
# UVM-1.1d
# (C) 2007-2013 Mentor Graphics Corporation
# (C) 2007-2013 Cadence Design Systems, Inc.
# (C) 2006-2013 Synopsys, Inc.
# (C) 2011-2013 Cypress Semiconductor Corp.
# ----------------------------------------------------------------
# 
#   ***********       IMPORTANT RELEASE NOTES         ************
# 
#   You are using a version of the UVM library that has been compiled
#   with `UVM_NO_DEPRECATED undefined.
#   See http://www.eda.org/svdb/view.php?id=3313 for more details.
# 
#   You are using a version of the UVM library that has been compiled
#   with `UVM_OBJECT_MUST_HAVE_CONSTRUCTOR undefined.
#   See http://www.eda.org/svdb/view.php?id=3770 for more details.
# 
#       (Specify +UVM_NO_RELNOTES to turn off this notice)
# 
# UVM_INFO verilog_src/questa_uvm_pkg-1.2/src/questa_uvm_pkg.sv(215) @ 0: reporter [Questa UVM] QUESTA_UVM-1.2.3
# UVM_INFO verilog_src/questa_uvm_pkg-1.2/src/questa_uvm_pkg.sv(217) @ 0: reporter [Questa UVM]  questa_uvm::init(+struct)
# UVM_INFO @ 0: reporter [RNTST] Running test invalid_test3...
# UVM_INFO @ 0: reporter [UVMTOP] UVM testbench topology:
# ------------------------------------------------------------------------
# Name                        Type                             Size  Value
# ------------------------------------------------------------------------
# uvm_test_top                invalid_test3                    -     @471 
#   morse_environment         morse_environment                -     @478 
#     morse_active_agt        morse_active_agent               -     @493 
#       morse_active_driv     morse_driver                     -     @636 
#         rsp_port            uvm_analysis_port                -     @651 
#         seq_item_port       uvm_seq_item_pull_port           -     @643 
#       morse_active_mon      morse_active_monitor             -     @768 
#         active_mon_port     uvm_analysis_port                -     @779 
#       morse_active_seqr     morse_sequencer                  -     @659 
#         rsp_export          uvm_analysis_export              -     @666 
#         seq_item_export     uvm_seq_item_pull_imp            -     @760 
#         arbitration_queue   array                            0     -    
#         lock_queue          array                            0     -    
#         num_last_reqs       integral                         32    'd1  
#         num_last_rsps       integral                         32    'd1  
#     morse_coverage          morse_coverage                   -     @608 
#       cov_active_mon_port   uvm_analysis_imp_active_mon_cg   -     @615 
#       cov_passive_mon_port  uvm_analysis_imp_passive_mon_cg  -     @623 
#     morse_passive_agt       morse_passive_agent              -     @500 
#       morse_passive_mon     morse_passive_monitor            -     @795 
#         passive_mon_port    uvm_analysis_port                -     @802 
#     morse_scoreboard        morse_scoreboard                 -     @507 
#       active_scb_fifo       uvm_tlm_analysis_fifo #(T)       -     @514 
#         analysis_export     uvm_analysis_imp                 -     @553 
#         get_ap              uvm_analysis_port                -     @545 
#         get_peek_export     uvm_get_peek_imp                 -     @529 
#         put_ap              uvm_analysis_port                -     @537 
#         put_export          uvm_put_imp                      -     @521 
#       passive_scb_fifo      uvm_tlm_analysis_fifo #(T)       -     @561 
#         analysis_export     uvm_analysis_imp                 -     @600 
#         get_ap              uvm_analysis_port                -     @592 
#         get_peek_export     uvm_get_peek_imp                 -     @576 
#         put_ap              uvm_analysis_port                -     @584 
#         put_export          uvm_put_imp                      -     @568 
# ------------------------------------------------------------------------
# 
# UVM_INFO morse_driver.sv(99) @ 25: uvm_test_top.morse_environment.morse_active_agt.morse_active_driv [DRV] rst = 0, dot = 0, dash = 0, char_space = 0, word_space = 0
# UVM_INFO morse_passive_monitor.sv(65) @ 35: uvm_test_top.morse_environment.morse_passive_agt.morse_passive_mon [OUT_MON] rst = x, sout = ff
# UVM_INFO morse_active_monitor.sv(63) @ 35: uvm_test_top.morse_environment.morse_active_agt.morse_active_mon [INP_MON] rst = 0, char_space = 0, dot = 0, dash = 0, word_space = 0
# UVM_INFO morse_scoreboard.sv(336) @ 35: uvm_test_top.morse_environment.morse_scoreboard [SCOREBOARD-RESET] sout = ff | actual=expected, MATCH
# 
# 
# UVM_INFO morse_scoreboard.sv(339) @ 35: uvm_test_top.morse_environment.morse_scoreboard [SCOREBOARD-RESET] buffer size = 0
# UVM_INFO morse_scoreboard.sv(359) @ 35: uvm_test_top.morse_environment.morse_scoreboard [SCOREBOARD-RESET] Reset detected | buffer cleared and sout=0xFF verified
# UVM_INFO morse_driver.sv(99) @ 35: uvm_test_top.morse_environment.morse_active_agt.morse_active_driv [DRV] rst = 1, dot = 1, dash = 0, char_space = 0, word_space = 0
# UVM_INFO morse_active_monitor.sv(63) @ 45: uvm_test_top.morse_environment.morse_active_agt.morse_active_mon [INP_MON] rst = 1, char_space = 0, dot = 1, dash = 0, word_space = 0
# UVM_INFO morse_passive_monitor.sv(65) @ 45: uvm_test_top.morse_environment.morse_passive_agt.morse_passive_mon [OUT_MON] rst = x, sout = ff
# UVM_INFO morse_scoreboard.sv(336) @ 45: uvm_test_top.morse_environment.morse_scoreboard [SCOREBOARD-DOT] sout = ff | actual=expected, MATCH
# 
# 
# UVM_INFO morse_scoreboard.sv(339) @ 45: uvm_test_top.morse_environment.morse_scoreboard [SCOREBOARD-DOT] buffer size = 1
# UVM_INFO morse_scoreboard.sv(367) @ 45: uvm_test_top.morse_environment.morse_scoreboard [SCOREBOARD-DOT] values in the buffer 1
# 
# 
# UVM_INFO morse_driver.sv(99) @ 45: uvm_test_top.morse_environment.morse_active_agt.morse_active_driv [DRV] rst = 1, dot = 0, dash = 0, char_space = 0, word_space = 0
# UVM_INFO morse_passive_monitor.sv(65) @ 55: uvm_test_top.morse_environment.morse_passive_agt.morse_passive_mon [OUT_MON] rst = x, sout = ff
# UVM_INFO morse_active_monitor.sv(63) @ 55: uvm_test_top.morse_environment.morse_active_agt.morse_active_mon [INP_MON] rst = 1, char_space = 0, dot = 0, dash = 0, word_space = 0
# UVM_INFO morse_driver.sv(99) @ 55: uvm_test_top.morse_environment.morse_active_agt.morse_active_driv [DRV] rst = 1, dot = 0, dash = 1, char_space = 0, word_space = 0
# UVM_INFO morse_active_monitor.sv(63) @ 65: uvm_test_top.morse_environment.morse_active_agt.morse_active_mon [INP_MON] rst = 1, char_space = 0, dot = 0, dash = 1, word_space = 0
# UVM_INFO morse_passive_monitor.sv(65) @ 65: uvm_test_top.morse_environment.morse_passive_agt.morse_passive_mon [OUT_MON] rst = x, sout = ff
# UVM_INFO morse_scoreboard.sv(336) @ 65: uvm_test_top.morse_environment.morse_scoreboard [SCOREBOARD-DASH] sout = ff | actual=expected, MATCH
# 
# 
# UVM_INFO morse_scoreboard.sv(339) @ 65: uvm_test_top.morse_environment.morse_scoreboard [SCOREBOARD-DASH] buffer size = 2
# UVM_INFO morse_scoreboard.sv(375) @ 65: uvm_test_top.morse_environment.morse_scoreboard [SCOREBOARD-DASH] values in the buffer 1 2
# 
# 
# UVM_INFO morse_driver.sv(99) @ 65: uvm_test_top.morse_environment.morse_active_agt.morse_active_driv [DRV] rst = 1, dot = 0, dash = 0, char_space = 0, word_space = 0
# UVM_INFO morse_passive_monitor.sv(65) @ 75: uvm_test_top.morse_environment.morse_passive_agt.morse_passive_mon [OUT_MON] rst = x, sout = ff
# UVM_INFO morse_active_monitor.sv(63) @ 75: uvm_test_top.morse_environment.morse_active_agt.morse_active_mon [INP_MON] rst = 1, char_space = 0, dot = 0, dash = 0, word_space = 0
# UVM_INFO morse_driver.sv(99) @ 75: uvm_test_top.morse_environment.morse_active_agt.morse_active_driv [DRV] rst = 1, dot = 1, dash = 0, char_space = 0, word_space = 0
# UVM_INFO morse_active_monitor.sv(63) @ 85: uvm_test_top.morse_environment.morse_active_agt.morse_active_mon [INP_MON] rst = 1, char_space = 0, dot = 1, dash = 0, word_space = 0
# UVM_INFO morse_passive_monitor.sv(65) @ 85: uvm_test_top.morse_environment.morse_passive_agt.morse_passive_mon [OUT_MON] rst = x, sout = ff
# UVM_INFO morse_scoreboard.sv(336) @ 85: uvm_test_top.morse_environment.morse_scoreboard [SCOREBOARD-DOT] sout = ff | actual=expected, MATCH
# 
# 
# UVM_INFO morse_scoreboard.sv(339) @ 85: uvm_test_top.morse_environment.morse_scoreboard [SCOREBOARD-DOT] buffer size = 3
# UVM_INFO morse_scoreboard.sv(367) @ 85: uvm_test_top.morse_environment.morse_scoreboard [SCOREBOARD-DOT] values in the buffer 1 2 1
# 
# 
# UVM_INFO morse_driver.sv(99) @ 85: uvm_test_top.morse_environment.morse_active_agt.morse_active_driv [DRV] rst = 1, dot = 0, dash = 0, char_space = 0, word_space = 0
# UVM_INFO morse_passive_monitor.sv(65) @ 95: uvm_test_top.morse_environment.morse_passive_agt.morse_passive_mon [OUT_MON] rst = x, sout = ff
# UVM_INFO morse_active_monitor.sv(63) @ 95: uvm_test_top.morse_environment.morse_active_agt.morse_active_mon [INP_MON] rst = 1, char_space = 0, dot = 0, dash = 0, word_space = 0
# UVM_INFO morse_driver.sv(99) @ 95: uvm_test_top.morse_environment.morse_active_agt.morse_active_driv [DRV] rst = 1, dot = 0, dash = 1, char_space = 0, word_space = 0
# UVM_INFO morse_active_monitor.sv(63) @ 105: uvm_test_top.morse_environment.morse_active_agt.morse_active_mon [INP_MON] rst = 1, char_space = 0, dot = 0, dash = 1, word_space = 0
# UVM_INFO morse_passive_monitor.sv(65) @ 105: uvm_test_top.morse_environment.morse_passive_agt.morse_passive_mon [OUT_MON] rst = x, sout = ff
# UVM_INFO morse_scoreboard.sv(336) @ 105: uvm_test_top.morse_environment.morse_scoreboard [SCOREBOARD-DASH] sout = ff | actual=expected, MATCH
# 
# 
# UVM_INFO morse_scoreboard.sv(339) @ 105: uvm_test_top.morse_environment.morse_scoreboard [SCOREBOARD-DASH] buffer size = 4
# UVM_INFO morse_scoreboard.sv(375) @ 105: uvm_test_top.morse_environment.morse_scoreboard [SCOREBOARD-DASH] values in the buffer 1 2 1 2
# 
# 
# UVM_INFO morse_driver.sv(99) @ 105: uvm_test_top.morse_environment.morse_active_agt.morse_active_driv [DRV] rst = 1, dot = 0, dash = 0, char_space = 0, word_space = 0
# UVM_INFO morse_passive_monitor.sv(65) @ 115: uvm_test_top.morse_environment.morse_passive_agt.morse_passive_mon [OUT_MON] rst = x, sout = ff
# UVM_INFO morse_active_monitor.sv(63) @ 115: uvm_test_top.morse_environment.morse_active_agt.morse_active_mon [INP_MON] rst = 1, char_space = 0, dot = 0, dash = 0, word_space = 0
# UVM_INFO morse_driver.sv(99) @ 115: uvm_test_top.morse_environment.morse_active_agt.morse_active_driv [DRV] rst = 1, dot = 1, dash = 0, char_space = 0, word_space = 0
# UVM_INFO morse_active_monitor.sv(63) @ 125: uvm_test_top.morse_environment.morse_active_agt.morse_active_mon [INP_MON] rst = 1, char_space = 0, dot = 1, dash = 0, word_space = 0
# UVM_INFO morse_passive_monitor.sv(65) @ 125: uvm_test_top.morse_environment.morse_passive_agt.morse_passive_mon [OUT_MON] rst = x, sout = ff
# UVM_INFO morse_scoreboard.sv(336) @ 125: uvm_test_top.morse_environment.morse_scoreboard [SCOREBOARD-DOT] sout = ff | actual=expected, MATCH
# 
# 
# UVM_INFO morse_scoreboard.sv(339) @ 125: uvm_test_top.morse_environment.morse_scoreboard [SCOREBOARD-DOT] buffer size = 5
# UVM_INFO morse_scoreboard.sv(367) @ 125: uvm_test_top.morse_environment.morse_scoreboard [SCOREBOARD-DOT] values in the buffer 1 2 1 2 1
# 
# 
# UVM_INFO morse_driver.sv(99) @ 125: uvm_test_top.morse_environment.morse_active_agt.morse_active_driv [DRV] rst = 1, dot = 0, dash = 0, char_space = 0, word_space = 0
# UVM_INFO morse_passive_monitor.sv(65) @ 135: uvm_test_top.morse_environment.morse_passive_agt.morse_passive_mon [OUT_MON] rst = x, sout = ff
# UVM_INFO morse_active_monitor.sv(63) @ 135: uvm_test_top.morse_environment.morse_active_agt.morse_active_mon [INP_MON] rst = 1, char_space = 0, dot = 0, dash = 0, word_space = 0
# UVM_INFO morse_driver.sv(99) @ 135: uvm_test_top.morse_environment.morse_active_agt.morse_active_driv [DRV] rst = 1, dot = 0, dash = 0, char_space = 1, word_space = 0
# UVM_INFO morse_active_monitor.sv(63) @ 145: uvm_test_top.morse_environment.morse_active_agt.morse_active_mon [INP_MON] rst = 1, char_space = 1, dot = 0, dash = 0, word_space = 0
# UVM_INFO morse_passive_monitor.sv(65) @ 145: uvm_test_top.morse_environment.morse_passive_agt.morse_passive_mon [OUT_MON] rst = x, sout = ff
# UVM_INFO morse_scoreboard.sv(336) @ 145: uvm_test_top.morse_environment.morse_scoreboard [SCOREBOARD-CHAR DELAY] sout = ff | actual=expected, MATCH
# 
# 
# UVM_INFO morse_scoreboard.sv(339) @ 145: uvm_test_top.morse_environment.morse_scoreboard [SCOREBOARD-CHAR DELAY] buffer size = 5
# UVM_INFO morse_driver.sv(99) @ 145: uvm_test_top.morse_environment.morse_active_agt.morse_active_driv [DRV] rst = 1, dot = 0, dash = 0, char_space = 0, word_space = 0
# UVM_INFO morse_passive_monitor.sv(65) @ 155: uvm_test_top.morse_environment.morse_passive_agt.morse_passive_mon [OUT_MON] rst = x, sout = ff
# UVM_INFO morse_active_monitor.sv(63) @ 155: uvm_test_top.morse_environment.morse_active_agt.morse_active_mon [INP_MON] rst = 1, char_space = 0, dot = 0, dash = 0, word_space = 0
# count is            2
# UVM_INFO morse_scoreboard.sv(336) @ 155: uvm_test_top.morse_environment.morse_scoreboard [SCOREBOARD-CHAR DELAY] sout = ff | actual=expected, MATCH
# 
# 
# UVM_INFO morse_scoreboard.sv(339) @ 155: uvm_test_top.morse_environment.morse_scoreboard [SCOREBOARD-CHAR DELAY] buffer size = 5
# UVM_INFO morse_active_monitor.sv(63) @ 165: uvm_test_top.morse_environment.morse_active_agt.morse_active_mon [INP_MON] rst = 1, char_space = 0, dot = 0, dash = 0, word_space = 0
# UVM_INFO morse_passive_monitor.sv(65) @ 165: uvm_test_top.morse_environment.morse_passive_agt.morse_passive_mon [OUT_MON] rst = x, sout = ff
# character decodding at count =           2
# UVM_INFO morse_scoreboard.sv(336) @ 165: uvm_test_top.morse_environment.morse_scoreboard [SCOREBOARD-CHAR] sout = ff | actual=expected, MATCH
# 
# 
# UVM_INFO morse_scoreboard.sv(339) @ 165: uvm_test_top.morse_environment.morse_scoreboard [SCOREBOARD-CHAR] buffer size = 0
# UVM_INFO morse_passive_monitor.sv(65) @ 175: uvm_test_top.morse_environment.morse_passive_agt.morse_passive_mon [OUT_MON] rst = x, sout = ff
# UVM_INFO morse_active_monitor.sv(63) @ 175: uvm_test_top.morse_environment.morse_active_agt.morse_active_mon [INP_MON] rst = 1, char_space = 0, dot = 0, dash = 0, word_space = 0
# UVM_INFO morse_active_monitor.sv(63) @ 185: uvm_test_top.morse_environment.morse_active_agt.morse_active_mon [INP_MON] rst = 1, char_space = 0, dot = 0, dash = 0, word_space = 0
# UVM_INFO morse_passive_monitor.sv(65) @ 185: uvm_test_top.morse_environment.morse_passive_agt.morse_passive_mon [OUT_MON] rst = x, sout = ff
# UVM_INFO morse_driver.sv(99) @ 185: uvm_test_top.morse_environment.morse_active_agt.morse_active_driv [DRV] rst = 1, dot = 1, dash = 0, char_space = 0, word_space = 0
# UVM_INFO morse_passive_monitor.sv(65) @ 195: uvm_test_top.morse_environment.morse_passive_agt.morse_passive_mon [OUT_MON] rst = x, sout = ff
# UVM_INFO morse_active_monitor.sv(63) @ 195: uvm_test_top.morse_environment.morse_active_agt.morse_active_mon [INP_MON] rst = 1, char_space = 0, dot = 1, dash = 0, word_space = 0
# UVM_INFO morse_scoreboard.sv(336) @ 195: uvm_test_top.morse_environment.morse_scoreboard [SCOREBOARD-DOT] sout = ff | actual=expected, MATCH
# 
# 
# UVM_INFO morse_scoreboard.sv(339) @ 195: uvm_test_top.morse_environment.morse_scoreboard [SCOREBOARD-DOT] buffer size = 1
# UVM_INFO morse_scoreboard.sv(367) @ 195: uvm_test_top.morse_environment.morse_scoreboard [SCOREBOARD-DOT] values in the buffer 1
# 
# 
# UVM_INFO morse_driver.sv(99) @ 195: uvm_test_top.morse_environment.morse_active_agt.morse_active_driv [DRV] rst = 1, dot = 0, dash = 0, char_space = 0, word_space = 0
# UVM_INFO morse_active_monitor.sv(63) @ 205: uvm_test_top.morse_environment.morse_active_agt.morse_active_mon [INP_MON] rst = 1, char_space = 0, dot = 0, dash = 0, word_space = 0
# UVM_INFO morse_passive_monitor.sv(65) @ 205: uvm_test_top.morse_environment.morse_passive_agt.morse_passive_mon [OUT_MON] rst = x, sout = ff
# UVM_INFO morse_driver.sv(99) @ 205: uvm_test_top.morse_environment.morse_active_agt.morse_active_driv [DRV] rst = 1, dot = 0, dash = 1, char_space = 0, word_space = 0
# UVM_INFO morse_passive_monitor.sv(65) @ 215: uvm_test_top.morse_environment.morse_passive_agt.morse_passive_mon [OUT_MON] rst = x, sout = ff
# UVM_INFO morse_active_monitor.sv(63) @ 215: uvm_test_top.morse_environment.morse_active_agt.morse_active_mon [INP_MON] rst = 1, char_space = 0, dot = 0, dash = 1, word_space = 0
# UVM_INFO morse_scoreboard.sv(336) @ 215: uvm_test_top.morse_environment.morse_scoreboard [SCOREBOARD-DASH] sout = ff | actual=expected, MATCH
# 
# 
# UVM_INFO morse_scoreboard.sv(339) @ 215: uvm_test_top.morse_environment.morse_scoreboard [SCOREBOARD-DASH] buffer size = 2
# UVM_INFO morse_scoreboard.sv(375) @ 215: uvm_test_top.morse_environment.morse_scoreboard [SCOREBOARD-DASH] values in the buffer 1 2
# 
# 
# UVM_INFO morse_driver.sv(99) @ 215: uvm_test_top.morse_environment.morse_active_agt.morse_active_driv [DRV] rst = 1, dot = 0, dash = 0, char_space = 0, word_space = 0
# UVM_INFO morse_active_monitor.sv(63) @ 225: uvm_test_top.morse_environment.morse_active_agt.morse_active_mon [INP_MON] rst = 1, char_space = 0, dot = 0, dash = 0, word_space = 0
# UVM_INFO morse_passive_monitor.sv(65) @ 225: uvm_test_top.morse_environment.morse_passive_agt.morse_passive_mon [OUT_MON] rst = x, sout = ff
# UVM_INFO morse_driver.sv(99) @ 225: uvm_test_top.morse_environment.morse_active_agt.morse_active_driv [DRV] rst = 1, dot = 1, dash = 0, char_space = 0, word_space = 0
# UVM_INFO morse_passive_monitor.sv(65) @ 235: uvm_test_top.morse_environment.morse_passive_agt.morse_passive_mon [OUT_MON] rst = x, sout = ff
# UVM_INFO morse_active_monitor.sv(63) @ 235: uvm_test_top.morse_environment.morse_active_agt.morse_active_mon [INP_MON] rst = 1, char_space = 0, dot = 1, dash = 0, word_space = 0
# UVM_INFO morse_scoreboard.sv(336) @ 235: uvm_test_top.morse_environment.morse_scoreboard [SCOREBOARD-DOT] sout = ff | actual=expected, MATCH
# 
# 
# UVM_INFO morse_scoreboard.sv(339) @ 235: uvm_test_top.morse_environment.morse_scoreboard [SCOREBOARD-DOT] buffer size = 3
# UVM_INFO morse_scoreboard.sv(367) @ 235: uvm_test_top.morse_environment.morse_scoreboard [SCOREBOARD-DOT] values in the buffer 1 2 1
# 
# 
# UVM_INFO morse_driver.sv(99) @ 235: uvm_test_top.morse_environment.morse_active_agt.morse_active_driv [DRV] rst = 1, dot = 0, dash = 0, char_space = 0, word_space = 0
# UVM_INFO morse_active_monitor.sv(63) @ 245: uvm_test_top.morse_environment.morse_active_agt.morse_active_mon [INP_MON] rst = 1, char_space = 0, dot = 0, dash = 0, word_space = 0
# UVM_INFO morse_passive_monitor.sv(65) @ 245: uvm_test_top.morse_environment.morse_passive_agt.morse_passive_mon [OUT_MON] rst = x, sout = ff
# UVM_INFO morse_driver.sv(99) @ 245: uvm_test_top.morse_environment.morse_active_agt.morse_active_driv [DRV] rst = 1, dot = 0, dash = 1, char_space = 0, word_space = 0
# UVM_INFO morse_passive_monitor.sv(65) @ 255: uvm_test_top.morse_environment.morse_passive_agt.morse_passive_mon [OUT_MON] rst = x, sout = ff
# UVM_INFO morse_active_monitor.sv(63) @ 255: uvm_test_top.morse_environment.morse_active_agt.morse_active_mon [INP_MON] rst = 1, char_space = 0, dot = 0, dash = 1, word_space = 0
# UVM_INFO morse_scoreboard.sv(336) @ 255: uvm_test_top.morse_environment.morse_scoreboard [SCOREBOARD-DASH] sout = ff | actual=expected, MATCH
# 
# 
# UVM_INFO morse_scoreboard.sv(339) @ 255: uvm_test_top.morse_environment.morse_scoreboard [SCOREBOARD-DASH] buffer size = 4
# UVM_INFO morse_scoreboard.sv(375) @ 255: uvm_test_top.morse_environment.morse_scoreboard [SCOREBOARD-DASH] values in the buffer 1 2 1 2
# 
# 
# UVM_INFO morse_driver.sv(99) @ 255: uvm_test_top.morse_environment.morse_active_agt.morse_active_driv [DRV] rst = 1, dot = 0, dash = 0, char_space = 0, word_space = 0
# UVM_INFO morse_active_monitor.sv(63) @ 265: uvm_test_top.morse_environment.morse_active_agt.morse_active_mon [INP_MON] rst = 1, char_space = 0, dot = 0, dash = 0, word_space = 0
# UVM_INFO morse_passive_monitor.sv(65) @ 265: uvm_test_top.morse_environment.morse_passive_agt.morse_passive_mon [OUT_MON] rst = x, sout = ff
# UVM_INFO morse_driver.sv(99) @ 265: uvm_test_top.morse_environment.morse_active_agt.morse_active_driv [DRV] rst = 1, dot = 1, dash = 0, char_space = 0, word_space = 0
# UVM_INFO morse_passive_monitor.sv(65) @ 275: uvm_test_top.morse_environment.morse_passive_agt.morse_passive_mon [OUT_MON] rst = x, sout = ff
# UVM_INFO morse_active_monitor.sv(63) @ 275: uvm_test_top.morse_environment.morse_active_agt.morse_active_mon [INP_MON] rst = 1, char_space = 0, dot = 1, dash = 0, word_space = 0
# UVM_INFO morse_scoreboard.sv(336) @ 275: uvm_test_top.morse_environment.morse_scoreboard [SCOREBOARD-DOT] sout = ff | actual=expected, MATCH
# 
# 
# UVM_INFO morse_scoreboard.sv(339) @ 275: uvm_test_top.morse_environment.morse_scoreboard [SCOREBOARD-DOT] buffer size = 5
# UVM_INFO morse_scoreboard.sv(367) @ 275: uvm_test_top.morse_environment.morse_scoreboard [SCOREBOARD-DOT] values in the buffer 1 2 1 2 1
# 
# 
# UVM_INFO morse_driver.sv(99) @ 275: uvm_test_top.morse_environment.morse_active_agt.morse_active_driv [DRV] rst = 1, dot = 0, dash = 0, char_space = 0, word_space = 0
# UVM_INFO morse_active_monitor.sv(63) @ 285: uvm_test_top.morse_environment.morse_active_agt.morse_active_mon [INP_MON] rst = 1, char_space = 0, dot = 0, dash = 0, word_space = 0
# UVM_INFO morse_passive_monitor.sv(65) @ 285: uvm_test_top.morse_environment.morse_passive_agt.morse_passive_mon [OUT_MON] rst = x, sout = ff
# UVM_INFO morse_driver.sv(99) @ 285: uvm_test_top.morse_environment.morse_active_agt.morse_active_driv [DRV] rst = 1, dot = 0, dash = 0, char_space = 1, word_space = 0
# UVM_INFO morse_passive_monitor.sv(65) @ 295: uvm_test_top.morse_environment.morse_passive_agt.morse_passive_mon [OUT_MON] rst = x, sout = ff
# UVM_INFO morse_active_monitor.sv(63) @ 295: uvm_test_top.morse_environment.morse_active_agt.morse_active_mon [INP_MON] rst = 1, char_space = 1, dot = 0, dash = 0, word_space = 0
# UVM_INFO morse_scoreboard.sv(336) @ 295: uvm_test_top.morse_environment.morse_scoreboard [SCOREBOARD-CHAR DELAY] sout = ff | actual=expected, MATCH
# 
# 
# UVM_INFO morse_scoreboard.sv(339) @ 295: uvm_test_top.morse_environment.morse_scoreboard [SCOREBOARD-CHAR DELAY] buffer size = 5
# UVM_INFO morse_driver.sv(99) @ 295: uvm_test_top.morse_environment.morse_active_agt.morse_active_driv [DRV] rst = 1, dot = 0, dash = 0, char_space = 0, word_space = 0
# UVM_INFO morse_active_monitor.sv(63) @ 305: uvm_test_top.morse_environment.morse_active_agt.morse_active_mon [INP_MON] rst = 1, char_space = 0, dot = 0, dash = 0, word_space = 0
# UVM_INFO morse_passive_monitor.sv(65) @ 305: uvm_test_top.morse_environment.morse_passive_agt.morse_passive_mon [OUT_MON] rst = x, sout = ff
# count is            2
# UVM_INFO morse_scoreboard.sv(336) @ 305: uvm_test_top.morse_environment.morse_scoreboard [SCOREBOARD-CHAR DELAY] sout = ff | actual=expected, MATCH
# 
# 
# UVM_INFO morse_scoreboard.sv(339) @ 305: uvm_test_top.morse_environment.morse_scoreboard [SCOREBOARD-CHAR DELAY] buffer size = 5
# UVM_INFO morse_passive_monitor.sv(65) @ 315: uvm_test_top.morse_environment.morse_passive_agt.morse_passive_mon [OUT_MON] rst = x, sout = ff
# UVM_INFO morse_active_monitor.sv(63) @ 315: uvm_test_top.morse_environment.morse_active_agt.morse_active_mon [INP_MON] rst = 1, char_space = 0, dot = 0, dash = 0, word_space = 0
# character decodding at count =           2
# UVM_INFO morse_scoreboard.sv(336) @ 315: uvm_test_top.morse_environment.morse_scoreboard [SCOREBOARD-CHAR] sout = ff | actual=expected, MATCH
# 
# 
# UVM_INFO morse_scoreboard.sv(339) @ 315: uvm_test_top.morse_environment.morse_scoreboard [SCOREBOARD-CHAR] buffer size = 0
# UVM_INFO morse_active_monitor.sv(63) @ 325: uvm_test_top.morse_environment.morse_active_agt.morse_active_mon [INP_MON] rst = 1, char_space = 0, dot = 0, dash = 0, word_space = 0
# UVM_INFO morse_passive_monitor.sv(65) @ 325: uvm_test_top.morse_environment.morse_passive_agt.morse_passive_mon [OUT_MON] rst = x, sout = ff
# UVM_INFO morse_passive_monitor.sv(65) @ 335: uvm_test_top.morse_environment.morse_passive_agt.morse_passive_mon [OUT_MON] rst = x, sout = ff
# UVM_INFO morse_active_monitor.sv(63) @ 335: uvm_test_top.morse_environment.morse_active_agt.morse_active_mon [INP_MON] rst = 1, char_space = 0, dot = 0, dash = 0, word_space = 0
# UVM_INFO verilog_src/uvm-1.1d/src/base/uvm_objection.svh(1268) @ 335: reporter [TEST_DONE] 'run' phase is ready to proceed to the 'extract' phase
# UVM_INFO morse_subscriber.sv(106) @ 335: uvm_test_top.morse_environment.morse_coverage [morse_coverage] [ACTIVE_MONITOR] Coverage ------> 82.14%,
# UVM_INFO morse_subscriber.sv(107) @ 335: uvm_test_top.morse_environment.morse_coverage [morse_coverage] [PASSIVE_MONITOR] Coverage ------> 0.00%
# Passes = 17 | Fails = 0
# 
# --- UVM Report Summary ---
# 
# ** Report counts by severity
# UVM_INFO :  139
# UVM_WARNING :    0
# UVM_ERROR :    0
# UVM_FATAL :    0
# ** Report counts by id
# [DRV]    25
# [INP_MON]    31
# [OUT_MON]    31
# [Questa UVM]     2
# [RNTST]     1
# [SCOREBOARD-CHAR]     4
# [SCOREBOARD-CHAR DELAY]     8
# [SCOREBOARD-DASH]    12
# [SCOREBOARD-DOT]    18
# [SCOREBOARD-RESET]     3
# [TEST_DONE]     1
# [UVMTOP]     1
# [morse_coverage]     2
# ** Note: $finish    : /tools/mentor/questasim_10.6c/questasim/linux/../verilog_src/uvm-1.1d/src/base/uvm_root.svh(430)
#    Time: 335 ns  Iteration: 62  Instance: /top
# Saving coverage database on exit...
# End time: 10:48:07 on Oct 31,2025, Elapsed time: 0:00:52
# Errors: 0, Warnings: 0
